Source,Target,Weight,TargetGene
SARS-CoV-2_M,Q9Y312,0.8014867240000001,AAR2
SARS-CoV-2_M,Q9UDR5,0.7651095040000001,AASS
SARS-CoV-2_nsp8,Q9NY61,0.783703681,AATF
SARS-CoV-2_orf9c,P33527,0.77999958,ABCC1
SARS-CoV-2_orf9c,Q9H845,0.7204560090000001,ACAD9
SARS-CoV-2_M,P11310,0.7243485690000001,ACADM
SARS-CoV-2_nsp7,O95573,0.897068932,ACSL3
SARS-CoV-2_orf8,Q13443,0.6695744260000001,ADAM9
SARS-CoV-2_orf8,Q9UHI8,0.96066367,ADAMTS1
SARS-CoV-2_nsp7,O00116,0.826490325,AGPS
SARS-CoV-2_nsp12,O43823,0.717059992,AKAP8
SARS-CoV-2_M,Q9ULX6,0.751981385,AKAP8L
SARS-CoV-2_nsp13,Q99996,0.990813809,AKAP9
SARS-CoV-2_nsp4,Q2TAA5,0.72745605,ALG11
SARS-CoV-2_orf3a,Q9Y673,0.8603248840000001,ALG5
SARS-CoV-2_orf9c,Q9BVK2,0.796680672,ALG8
SARS-CoV-2_M,Q4KMQ2,0.993904419,ANO6
SARS-CoV-2_nsp10,O94973,0.99112813,AP2A2
SARS-CoV-2_nsp10,Q96CW1,0.982905884,AP2M1
SARS-CoV-2_E,O00203,0.963550095,AP3B1
SARS-CoV-2_nsp15,P62330,0.9881314920000001,ARF6
SARS-CoV-2_orf3a,Q8N6S5,0.865135022,ARL6IP6
SARS-CoV-2_nsp8,O95260,0.804292637,ATE1
SARS-CoV-2_nsp6,Q9H7F0,0.805525853,ATP13A3
SARS-CoV-2_M,P05026,0.8176256009999999,ATP1B1
SARS-CoV-2_nsp6,O75964,0.717265558,ATP5MG
SARS-CoV-2_nsp6,Q15904,0.989106922,ATP6AP1
SARS-CoV-2_M,P38606,0.794938493,ATP6V1A
SARS-CoV-2_orf9b,Q9UL15,0.864649763,BAG5
SARS-CoV-2_nsp12,O14874,0.98581764,BCKDK
SARS-CoV-2_orf9c,Q9Y276,0.992309958,BCS1L
SARS-CoV-2_E,P25440,0.9065928759999999,BRD2
SARS-CoV-2_E,O60885,0.97848835,BRD4
SARS-CoV-2_M,Q9Y6E2,0.756364362,BZW2
SARS-CoV-2_nsp13,Q9BV19,0.932056845,C1orf50
SARS-CoV-2_nsp8,Q9H6F5,0.7368036609999999,CCDC86
SARS-CoV-2_nsp13,Q96SN8,0.939307247,CDK5RAP2
SARS-CoV-2_nsp13,P49454,0.873840643,CENPF
SARS-CoV-2_nsp13,Q8N8E3,0.964318835,CEP112
SARS-CoV-2_nsp13,Q66GS9,0.975292134,CEP135
SARS-CoV-2_nsp13,Q9BV73,0.9907178329999999,CEP250
SARS-CoV-2_nsp13,Q5VT06,0.86755993,CEP350
SARS-CoV-2_nsp13,O95684,0.9815703590000001,CEP43
SARS-CoV-2_nsp13,Q76N32,0.8797042159999999,CEP68
SARS-CoV-2_orf9b,O43633,0.948289085,CHMP2A
SARS-CoV-2_orf8,Q8IZ52,0.989068101,CHPF
SARS-CoV-2_orf8,Q9P2E5,0.703620586,CHPF2
SARS-CoV-2_orf8,P0C7P0,0.760326153,CISD3
SARS-CoV-2_nsp13,O14578,0.8873148759999999,CIT
SARS-CoV-2_orf3a,Q96S66,0.9206209009999999,CLCC1
SARS-CoV-2_nsp13,Q8N3C7,0.966944672,CLIP4
SARS-CoV-2_nsp13,Q7Z7A1,0.9899174079999999,CNTRL
SARS-CoV-2_orf8,P12109,0.9773000059999999,COL6A1
SARS-CoV-2_nsp1,Q8NBJ5,0.794123974,COLGALT1
SARS-CoV-2_nsp7,P21964,0.745231765,COMT
SARS-CoV-2_M,Q96D53,0.80074032,COQ8B
SARS-CoV-2_nsp12,Q6UUV7,0.9911043070000001,CRTC3
SARS-CoV-2_orf9b,O75534,0.9889597509999999,CSDE1
SARS-CoV-2_N,P19784,0.875048268,CSNK2A2
SARS-CoV-2_N,P67870,0.803607895,CSNK2B
SARS-CoV-2_orf10,Q13617,0.818290141,CUL2
SARS-CoV-2_E,Q6UX04,0.89310916,CWC27
SARS-CoV-2_nsp7,O43169,0.80351019,CYB5B
SARS-CoV-2_nsp7,P00387,0.956349351,CYB5R3
SARS-CoV-2_nsp9,P61962,0.969234024,DCAF7
SARS-CoV-2_nsp7,Q8WVC6,0.862452335,DCAKD
SARS-CoV-2_orf9b,Q9H773,0.753716811,DCTPP1
SARS-CoV-2_nsp8,Q13206,0.7557535940000001,DDX10
SARS-CoV-2_N,Q9NR30,0.6135445279999999,DDX21
SARS-CoV-2_nsp4,Q9NVH1,0.726866873,DNAJC11
SARS-CoV-2_nsp7,Q96DA6,0.9814501259999999,DNAJC19
SARS-CoV-2_orf8,P26358,0.795844505,DNMT1
SARS-CoV-2_orf9b,Q9H2P9,0.956356188,DPH5
SARS-CoV-2_orf9c,Q2PZI1,0.968853805,DPY19L1
SARS-CoV-2_orf9c,Q9BQ95,0.776412187,ECSIT
SARS-CoV-2_orf8,Q9BZQ6,0.81834398,EDEM3
SARS-CoV-2_nsp2,O60573,0.806833749,EIF4E2
SARS-CoV-2_nsp9,Q15056,0.86901939,EIF4H
SARS-CoV-2_orf10,Q15370,0.655233005,ELOB
SARS-CoV-2_orf10,Q15369,0.6189486129999999,ELOC
SARS-CoV-2_orf8,Q8N766,0.723777507,EMC1
SARS-CoV-2_nsp13,Q8IUD2,0.9907181270000001,ERC1
SARS-CoV-2_nsp10,Q969X5,0.912239515,ERGIC1
SARS-CoV-2_orf8,Q96DZ1,0.7327239090000001,ERLEC1
SARS-CoV-2_orf9c,Q7Z2K6,0.793920345,ERMP1
SARS-CoV-2_orf8,Q86YB8,0.991893438,ERO1B
SARS-CoV-2_orf8,Q9BS26,0.706328526,ERP44
SARS-CoV-2_M,P13804,0.718398295,ETFA
SARS-CoV-2_nsp8,Q13868,0.6725876590000001,EXOSC2
SARS-CoV-2_nsp8,Q9NQT5,0.774797319,EXOSC3
SARS-CoV-2_nsp8,Q9NQT4,0.7042919009999999,EXOSC5
SARS-CoV-2_nsp8,Q96B26,0.990898225,EXOSC8
SARS-CoV-2_orf9c,P55085,0.891878677,F2RL1
SARS-CoV-2_nsp7,Q96A26,0.748773582,FAM162A
SARS-CoV-2_M,Q9UBU6,0.80448832,FAM8A1
SARS-CoV-2_N,Q8NCA5,0.9210767190000001,FAM98A
SARS-CoV-2_orf9c,Q96K12,0.734768532,FAR2
SARS-CoV-2_M,Q7L8L6,0.7583658870000001,FASTKD5
SARS-CoV-2_nsp9,Q9UBX5,0.9920021929999999,FBLN5
SARS-CoV-2_nsp9,P35555,0.992372395,FBN1
SARS-CoV-2_nsp9,P35556,0.991012329,FBN2
SARS-CoV-2_orf8,Q9NXK8,0.8244656490000001,FBXL12
SARS-CoV-2_orf8,Q96AY3,0.660192254,FKBP10
SARS-CoV-2_nsp2,Q5T1M5,0.9880566959999999,FKBP15
SARS-CoV-2_orf8,Q9Y680,0.9881345229999999,FKBP7
SARS-CoV-2_orf8,Q8IWF2,0.977300463,FOXRED2
SARS-CoV-2_nsp13,Q9BQS8,0.7331733009999999,FYCO1
SARS-CoV-2_N,Q13283,0.95331626,G3BP1
SARS-CoV-2_N,Q9UN86,0.958133672,G3BP2
SARS-CoV-2_nsp13,Q96CN9,0.8733615709999999,GCC1
SARS-CoV-2_nsp13,Q8IWJ2,0.9873871190000001,GCC2
SARS-CoV-2_orf8,Q99988,0.985884183,GDF15
SARS-CoV-2_nsp10,P55789,0.965372815,GFER
SARS-CoV-2_M,P38435,0.7899669979999999,GGCX
SARS-CoV-2_orf8,Q92820,0.877155555,GGH
SARS-CoV-2_orf9c,Q9H3K2,0.7222548209999999,GHITM
SARS-CoV-2_nsp2,Q6Y7W6,0.767224555,GIGYF2
SARS-CoV-2_nsp14,P06280,0.841137578,GLA
SARS-CoV-2_nsp7,P62873,0.839532136,GNB1
SARS-CoV-2_nsp7,P63218,0.817631566,GNG5
SARS-CoV-2_nsp13,Q08379,0.952311087,GOLGA2
SARS-CoV-2_nsp13,Q08378,0.928738823,GOLGA3
SARS-CoV-2_Spike,Q7Z5G4,0.9788927190000001,GOLGA7
SARS-CoV-2_nsp13,Q14789,0.985604541,GOLGB1
SARS-CoV-2_nsp13,Q9BQQ3,0.9868703120000001,GORASP1
SARS-CoV-2_orf9c,O43292,0.804405154,GPAA1
SARS-CoV-2_nsp5_C145A,P07203,0.97684084,GPX1
SARS-CoV-2_nsp13,Q4V328,0.989815969,GRIPAP1
SARS-CoV-2_nsp10,Q9HAV7,0.9865870809999999,GRPEL1
SARS-CoV-2_nsp9,P13984,0.8774269379999999,GTF2F2
SARS-CoV-2_nsp5,Q92769,0.993708403,HDAC2
SARS-CoV-2_orf7a,Q7Z4Q2,0.7899883790000001,HEATR3
SARS-CoV-2_nsp8,Q9ULT8,0.885504785,HECTD1
SARS-CoV-2_orf3a,P09601,0.993596312,HMOX1
SARS-CoV-2_nsp13,Q9UJC3,0.994048081,HOOK1
SARS-CoV-2_nsp7,Q7LGA3,0.7064668340000001,HS2ST1
SARS-CoV-2_orf8,Q96MM7,0.806104461,HS6ST2
SARS-CoV-2_nsp13,O75506,0.851502614,HSBP1
SARS-CoV-2_orf8,Q9Y4L1,0.77235306,HYOU1
SARS-CoV-2_nsp4,P14735,0.918031442,IDE
SARS-CoV-2_orf8,Q96F46,0.80084048,IL17RA
SARS-CoV-2_nsp14,P12268,0.989667608,IMPDH2
SARS-CoV-2_orf8,P58166,0.9936459790000001,INHBE
SARS-CoV-2_M,Q96HW7,0.9433047059999999,INTS4
SARS-CoV-2_orf8,P05556,0.817711683,ITGB1
SARS-CoV-2_nsp13,Q96N16,0.987966991,JAKMIP1
SARS-CoV-2_N,Q6PKG0,0.73787466,LARP1
SARS-CoV-2_nsp12,Q92615,0.983254345,LARP4B
SARS-CoV-2_nsp8,Q4G0J3,0.812479682,LARP7
SARS-CoV-2_nsp7,Q12907,0.725773983,LMAN2
SARS-CoV-2_orf8,P28300,0.985331119,LOX
SARS-CoV-2_orf10,Q3KQU3,0.814143575,MAP7D1
SARS-CoV-2_orf9b,Q9P0L2,0.99395635,MARK1
SARS-CoV-2_orf9b,Q7KZI7,0.99404114,MARK2
SARS-CoV-2_orf9b,P27448,0.993959488,MARK3
SARS-CoV-2_nsp9,Q9NZL9,0.978282655,MAT2B
SARS-CoV-2_orf7a,Q9NU22,0.981108579,MDN1
SARS-CoV-2_nsp8,Q7L2J0,0.790978117,MEPCE
SARS-CoV-2_orf8,Q08431,0.743312102,MFGE8
SARS-CoV-2_nsp9,Q86YT6,0.89782233,MIB1
SARS-CoV-2_nsp13,Q8TD10,0.98176996,MIPOL1
SARS-CoV-2_nsp7,Q13724,0.782330987,MOGS
SARS-CoV-2_N,Q9HCE1,0.736672944,MOV10
SARS-CoV-2_nsp8,O00566,0.728559172,MPHOSPH10
SARS-CoV-2_nsp8,Q9Y399,0.9720575690000001,MRPS2
SARS-CoV-2_nsp8,P82663,0.826437119,MRPS25
SARS-CoV-2_nsp8,Q92552,0.602806863,MRPS27
SARS-CoV-2_nsp8,P82675,0.63637328,MRPS5
SARS-CoV-2_nsp7,Q5VT66,0.939721024,MTARC1
SARS-CoV-2_orf6,Q9NZJ7,0.851173737,MTCH1
SARS-CoV-2_nsp12,O75592,0.9874527040000001,MYCBP2
SARS-CoV-2_nsp8,Q96I59,0.78185035,NARS2
SARS-CoV-2_nsp7,Q8WUY8,0.720285746,NAT14
SARS-CoV-2_orf9c,Q9NV92,0.9806371740000001,NDFIP2
SARS-CoV-2_orf9c,Q9Y375,0.762046149,NDUFAF1
SARS-CoV-2_nsp7,Q8N183,0.9814448579999999,NDUFAF2
SARS-CoV-2_orf9c,Q9Y6M9,0.966177822,NDUFB9
SARS-CoV-2_nsp9,Q8TD19,0.991972865,NEK9
SARS-CoV-2_orf8,Q99519,0.9915611790000001,NEU1
SARS-CoV-2_nsp8,Q8NEJ9,0.71407894,NGDN
SARS-CoV-2_orf8,Q96IV0,0.993220351,NGLY1
SARS-CoV-2_nsp13,Q8N4C6,0.9915831940000001,NIN
SARS-CoV-2_nsp13,Q9Y2I6,0.9877905690000001,NINL
SARS-CoV-2_orf9c,Q86UT6,0.93198593,NLRX1
SARS-CoV-2_nsp8,Q9BSC4,0.8078195109999999,NOL10
SARS-CoV-2_orf8,P61916,0.978204196,NPC2
SARS-CoV-2_orf8,Q15818,0.984056824,NPTX1
SARS-CoV-2_nsp8,O96028,0.864651959,NSD2
SARS-CoV-2_nsp4,Q8TEM1,0.710174697,NUP210
SARS-CoV-2_nsp9,P35658,0.9622332640000001,NUP214
SARS-CoV-2_nsp9,Q7Z3B4,0.991624822,NUP54
SARS-CoV-2_nsp9,Q9BVL2,0.979586223,NUP58
SARS-CoV-2_nsp9,P37198,0.993010451,NUP62
SARS-CoV-2_nsp9,Q99567,0.92724312,NUP88
SARS-CoV-2_orf6,P52948,0.903566335,NUP98
SARS-CoV-2_nsp15,P61970,0.987886,NUTF2
SARS-CoV-2_orf8,Q13438,0.931530938,OS9
SARS-CoV-2_N,P11940,0.7366359290000001,PABPC1
SARS-CoV-2_N,Q13310,0.846200046,PABPC4
SARS-CoV-2_nsp13,O95613,0.9718559379999999,PCNT
SARS-CoV-2_orf8,P29122,0.7217908670000001,PCSK6
SARS-CoV-2_nsp13,Q5VU43,0.9791243909999999,PDE4DIP
SARS-CoV-2_nsp12,Q5EBL8,0.9611715359999999,PDZD11
SARS-CoV-2_orf9c,Q8TEQ8,0.746326481,PIGO
SARS-CoV-2_orf9c,Q96S52,0.647089409,PIGS
SARS-CoV-2_M,Q5JRX3,0.952308232,PITRM1
SARS-CoV-2_nsp1,Q99959,0.964585351,PKP2
SARS-CoV-2_orf8,P00750,0.973718932,PLAT
SARS-CoV-2_orf8,Q8IV08,0.722502016,PLD3
SARS-CoV-2_nsp12,Q9HAU0,0.990541089,PLEKHA5
SARS-CoV-2_orf8,Q9H8W4,0.98324168,PLEKHF2
SARS-CoV-2_orf8,O00469,0.992483418,PLOD2
SARS-CoV-2_M,Q10713,0.991059815,PMPCA
SARS-CoV-2_M,O75439,0.985120198,PMPCB
SARS-CoV-2_orf8,Q9H488,0.879682645,POFUT1
SARS-CoV-2_orf8,Q6UW63,0.95793072,POGLUT2
SARS-CoV-2_orf8,Q7Z4H8,0.932470503,POGLUT3
SARS-CoV-2_nsp1,P09884,0.981264591,POLA1
SARS-CoV-2_nsp1,Q14181,0.943678488,POLA2
SARS-CoV-2_nsp2,P16435,0.7109617690000001,POR
SARS-CoV-2_nsp12,Q9H2H8,0.986726338,PPIL3
SARS-CoV-2_orf10,P50897,0.7779206809999999,PPT1
SARS-CoV-2_nsp1,P49642,0.981268688,PRIM1
SARS-CoV-2_nsp1,P49643,0.9939751920000001,PRIM2
SARS-CoV-2_nsp13,P17612,0.8803211740000001,PRKACA
SARS-CoV-2_nsp13,P13861,0.8978572109999999,PRKAR2A
SARS-CoV-2_nsp13,P31323,0.9831915059999999,PRKAR2B
SARS-CoV-2_nsp12,Q5JSZ5,0.8439695759999999,PRRC2B
SARS-CoV-2_M,P48556,0.881424779,PSMD8
SARS-CoV-2_orf9b,Q9UKA9,0.991125633,PTBP2
SARS-CoV-2_nsp7,Q9H7Z7,0.7645383309999999,PTGES2
SARS-CoV-2_orf8,Q8N0Z8,0.72751463,PUSL1
SARS-CoV-2_orf8,P15151,0.9918939259999999,PVR
SARS-CoV-2_nsp7,Q6ZRP7,0.7943251459999999,QSOX2
SARS-CoV-2_nsp7,P61026,0.981443071,RAB10
SARS-CoV-2_nsp7,P61106,0.7507128259999999,RAB14
SARS-CoV-2_nsp7,Q9NP72,0.7566050879999999,RAB18
SARS-CoV-2_nsp7,P62820,0.9352895929999999,RAB1A
SARS-CoV-2_nsp7,P61019,0.97919572,RAB2A
SARS-CoV-2_nsp7,P51148,0.87908593,RAB5C
SARS-CoV-2_nsp7,P51149,0.9727242290000001,RAB7A
SARS-CoV-2_nsp7,P61006,0.8957445959999999,RAB8A
SARS-CoV-2_orf6,P78406,0.9632183459999999,RAE1
SARS-CoV-2_nsp7,P11233,0.750366485,RALA
SARS-CoV-2_nsp2,P52306,0.9916357440000001,RAP1GDS1
SARS-CoV-2_N,Q9NW13,0.628043125,RBM28
SARS-CoV-2_nsp12,Q96IZ5,0.96685652,RBM41
SARS-CoV-2_orf10,P62877,0.63921796,RBX1
SARS-CoV-2_nsp13,P35241,0.912028315,RDX
SARS-CoV-2_M,Q00765,0.913088507,REEP5
SARS-CoV-2_M,Q96HR9,0.9556571629999999,REEP6
SARS-CoV-2_orf9c,Q86VR2,0.731626333,RETREG3
SARS-CoV-2_nsp7,P61586,0.8290293990000001,RHOA
SARS-CoV-2_nsp12,Q13546,0.9818645,RIPK1
SARS-CoV-2_nsp15,Q9H4P4,0.993560817,RNF41
SARS-CoV-2_N,Q9Y3U8,0.631167513,RPL36
SARS-CoV-2_N,O43818,0.861168798,RRP9
SARS-CoV-2_M,Q9NQC3,0.873826097,RTN4
SARS-CoV-2_M,Q96ER3,0.7694729290000001,SAAL1
SARS-CoV-2_nsp12,A3KN83,0.969888009,SBNO1
SARS-CoV-2_orf9c,Q12770,0.895648601,SCAP
SARS-CoV-2_nsp7,Q8WTV0,0.854406247,SCARB1
SARS-CoV-2_nsp7,Q8NBX0,0.978675119,SCCPDH
SARS-CoV-2_orf8,Q99470,0.826107348,SDF2
SARS-CoV-2_nsp7,Q9BQE4,0.7017644040000001,SELENOS
SARS-CoV-2_nsp8,Q9HD40,0.809559247,SEPSECS
SARS-CoV-2_nsp6,Q99720,0.8422132529999999,SIGMAR1
SARS-CoV-2_orf8,Q9H173,0.967517561,SIL1
SARS-CoV-2_nsp14,Q9NXA8,0.99363281,SIRT5
SARS-CoV-2_M,Q9BQT8,0.880779937,SLC25A21
SARS-CoV-2_nsp2,O14975,0.9158034859999999,SLC27A2
SARS-CoV-2_orf9c,Q6NXT4,0.774357796,SLC30A6
SARS-CoV-2_M,Q8NEW0,0.7669724370000001,SLC30A7
SARS-CoV-2_M,Q6PML9,0.886323242,SLC30A9
SARS-CoV-2_E,Q8IWA5,0.9503428340000001,SLC44A2
SARS-CoV-2_orf9b,O14745,0.993764827,SLC9A3R1
SARS-CoV-2_nsp12,O95391,0.989493635,SLU7
SARS-CoV-2_orf8,Q9H4F8,0.972857922,SMOC1
SARS-CoV-2_N,Q8TAD8,0.818230245,SNIP1
SARS-CoV-2_nsp9,Q8N0X7,0.9629641290000001,SPART
SARS-CoV-2_nsp8,P09132,0.832502372,SRP19
SARS-CoV-2_nsp8,P61011,0.755584148,SRP54
SARS-CoV-2_nsp8,O76094,0.739540656,SRP72
SARS-CoV-2_orf8,O76061,0.979920785,STC2
SARS-CoV-2_M,P27105,0.752971772,STOM
SARS-CoV-2_orf3b,Q9UJZ1,0.9290390409999999,STOML2
SARS-CoV-2_orf3a,Q9UH99,0.8800199409999999,SUN2
SARS-CoV-2_orf9c,Q6NXT6,0.941527935,TAPT1
SARS-CoV-2_M,Q9BW92,0.758110505,TARS2
SARS-CoV-2_nsp11,O75347,0.768344701,TBCA
SARS-CoV-2_nsp13,Q9UHD2,0.9939705959999999,TBK1
SARS-CoV-2_nsp13,A7MCY6,0.985289524,TBKBP1
SARS-CoV-2_nsp12,Q99081,0.992827377,TCF12
SARS-CoV-2_orf10,Q9BU02,0.927363101,THTPA
SARS-CoV-2_nsp4,P62072,0.9614719820000001,TIMM10
SARS-CoV-2_nsp4,Q9Y5J6,0.985104055,TIMM10B
SARS-CoV-2_nsp4,Q9BSF4,0.9869803109999999,TIMM29
SARS-CoV-2_orf10,Q9Y5J9,0.7529974840000001,TIMM8B
SARS-CoV-2_nsp4,Q9Y5J7,0.9138062840000001,TIMM9
SARS-CoV-2_nsp13,Q04724,0.96917283,TLE1
SARS-CoV-2_nsp13,Q04726,0.933626993,TLE3
SARS-CoV-2_nsp13,Q08117,0.9624310309999999,TLE5
SARS-CoV-2_orf8,Q9BRN9,0.966748836,TM2D3
SARS-CoV-2_orf9c,Q9Y3A6,0.705393478,TMED5
SARS-CoV-2_orf9c,Q9GZU3,0.7518314359999999,TMEM39B
SARS-CoV-2_orf9c,Q5BJF2,0.730637585,TMEM97
SARS-CoV-2_orf9b,O94826,0.978100903,TOMM70
SARS-CoV-2_orf8,O14656,0.879789245,TOR1A
SARS-CoV-2_nsp7,Q5JTV8,0.74516805,TOR1AIP1
SARS-CoV-2_orf3a,Q8IWR1,0.9792803990000001,TRIM59
SARS-CoV-2_nsp5_C145A,Q9NXH9,0.984315505,TRMT1
SARS-CoV-2_M,Q9BSJ2,0.83958055,TUBGCP2
SARS-CoV-2_M,Q96CW5,0.7536070020000001,TUBGCP3
SARS-CoV-2_nsp12,Q2T9J0,0.993449369,TYSND1
SARS-CoV-2_nsp12,Q5T6F2,0.89261208,UBAP2
SARS-CoV-2_nsp12,Q14157,0.791211852,UBAP2L
SARS-CoV-2_orf9c,O00124,0.7705667620000001,UBXN8
SARS-CoV-2_orf8,Q9NYU1,0.844600144,UGGT2
SARS-CoV-2_N,Q92900,0.7530672709999999,UPF1
SARS-CoV-2_nsp13,Q92995,0.987514452,USP13
SARS-CoV-2_nsp12,Q70EL1,0.9809649509999999,USP54
SARS-CoV-2_orf3a,Q9H270,0.9678557109999999,VPS11
SARS-CoV-2_orf3a,Q96JC1,0.878755935,VPS39
SARS-CoV-2_nsp2,Q2M389,0.972115182,WASHC4
SARS-CoV-2_orf9c,O76024,0.955124813,WFS1
SARS-CoV-2_M,O95070,0.856000835,YIF1A
SARS-CoV-2_E,Q86VM9,0.7964150390000001,ZC3H18
SARS-CoV-2_nsp12,Q8IWR0,0.980817495,ZC3H7A
SARS-CoV-2_Spike,Q9C0B5,0.9823890129999999,ZDHHC5
SARS-CoV-2_nsp12,Q5VUA4,0.993695111,ZNF318
SARS-CoV-2_nsp9,Q96F45,0.777581447,ZNF503
SARS-CoV-2_orf10,Q9C0D3,0.85402934,ZYG11B
